<?xml version="1.0" encoding="utf-8"?>
<!-- Generator: Adobe Illustrator 16.0.3, SVG Export Plug-In . SVG Version: 6.00 Build 0)  -->
<!DOCTYPE svg PUBLIC "-//W3C//DTD SVG 1.1//EN" "http://www.w3.org/Graphics/SVG/1.1/DTD/svg11.dtd">
<svg version="1.1" id="Layer_1" xmlns="http://www.w3.org/2000/svg" xmlns:xlink="http://www.w3.org/1999/xlink" x="0px" y="0px"
	 width="480px" height="80px" viewBox="0 0 480 80" enable-background="new 0 0 480 80" xml:space="preserve">
<g id="Layer_2" display="none">
	<rect x="-16.5" y="-98" display="inline" fill="#F20000" width="565" height="288"/>
	<rect x="108.5" y="21.9" display="inline" fill="none" width="27.007" height="35.6"/>
	<text transform="matrix(1 0 0 1 108.5 53.8203)" display="inline" fill="#FFFFFF" font-family="'Tahoma'" font-size="42">$</text>
</g>
<polygon id="color_10_" fill="#FFFFFF" points="40,24.7 34,29.8 34,26 30,26 30,33.3 24.6,37.9 25.9,39.4 40,27.3 54.1,39.4 
	55.4,37.9 "/>
<path fill="#FFFFFF" d="M375.2,30.1l-0.5-1.6l-4.5,4.5l-3.4-3.4l4.5-4.5l-1.6-0.5c-0.8-0.3-1.7-0.4-2.602-0.4
	c-4.698,0-8.5,3.8-8.5,8.5c0,0.6,0.102,1.3,0.2,1.9l-14.6,10.9l10,10.3L365.1,41c0.602,0.1,1.2,0.2,1.9,0.2c4.7,0,8.5-3.8,8.5-8.5
	C375.6,31.8,375.5,30.9,375.2,30.1z"/>
<g>
	<polygon fill="#FFFFFF" points="123,48 123,50 117,50 117,48 106,48 106,55 134,55 134,48 	"/>
	<path fill="#FFFFFF" d="M126,29v-4h-12v4h-10v17h13v-2h6v2h13V29H126z M124,29h-8v-2h8V29z"/>
</g>
<g>
	<polygon fill="#FFFFFF" points="450,53 427,53 427,32 434,32 434,30 425,30 425,55 452,55 452,44 450,44 	"/>
	<path fill="#FFFFFF" d="M443,31.1c-6.1,0.4-12,2.7-12,13.9v3l1.8-2.4c2.2-2.898,4.5-4.5,10.2-4.6v6.2L455.5,36L443,24.8V31.1z"/>
</g>
<path fill="#FFFFFF" d="M40,30l-11,9.4V54h8v-7h6v7h8V39.4L40,30z M43,42h-6v-4h6V42z"/>
<rect x="188.539" y="25.017" fill="none" stroke="#FFFFFF" stroke-width="4" stroke-miterlimit="10" width="22.257" height="30"/>
<rect x="195.893" y="42.588" fill="#FFFFFF" stroke="#FFFFFF" stroke-width="3" stroke-miterlimit="10" width="7.78" height="1.01"/>
<rect x="194.299" y="35.156" fill="#FFFFFF" stroke="#FFFFFF" stroke-width="3" stroke-miterlimit="10" width="10.979" height="1.458"/>
<g>
	<path fill="#FFFFFF" d="M283.4,24.3l-1,1c-0.7,0.7-1.101,1.6-1.101,2.6c0,0.7,0.2,1.4,0.601,1.9l-8.5,5.4l11.3,11.3L290.1,38
		c0.601,0.4,1.2,0.6,1.9,0.6c1,0,1.9-0.4,2.6-1.1l1-1L283.4,24.3z"/>
	<path fill="#FFFFFF" d="M284.4,49.2L270.8,35.6c-1.399-1.4-3.8-1.4-5.1,0l-1,1l8.7,8.7l-9,9l1.399,1.4l9-9l8.7,8.7l1-1
		c0.7-0.7,1.1-1.601,1.1-2.601S285.1,49.8,284.4,49.2z"/>
</g>
</svg>
