31.03.2016, 03:26:11: Connecting to branch master at ftp.alfatextiles.com/admin@alfatextiles.com
31.03.2016, 03:26:12: Created new directory aleotex/public/bitbucket
31.03.2016, 03:26:23: Uploaded: /aleotex/public/bitbucket/data.inc.php
31.03.2016, 03:27:48: Connecting to branch master at ftp.alfatextiles.com/admin@alfatextiles.com
31.03.2016, 03:27:54: Created new directory aleotex/public
31.03.2016, 03:28:33: Uploaded: /aleotex/aleotex/public/test.txt
31.03.2016, 03:31:52: Connecting to branch master at ftp.alfatextiles.com/admin@alfatextiles.com
31.03.2016, 03:31:53: Created new directory aleotex/public
31.03.2016, 03:31:58: Uploaded: /aleotex/aleotex/public/favicon.ico
31.03.2016, 03:35:57: Connecting to branch master at ftp.alfatextiles.com/admin@alfatextiles.com
31.03.2016, 03:36:16: Uploaded: /aleotex/public/favicon.ico
31.03.2016, 03:41:15: Connecting to branch master at ftp.alfatextiles.com/admin@alfatextiles.com
31.03.2016, 03:41:39: Uploaded: /aleotex/resources/views/layouts/app.blade.php
31.03.2016, 04:13:09: Connecting to branch master at ftp.alfatextiles.com/admin@alfatextiles.com
31.03.2016, 04:13:23: Uploaded: /aleotex/app/Http/Controllers/CategoryController.php
